%YAML 1.1
%TAG !u! tag:unity3d.com,2011:
--- !u!74 &7400000
AnimationClip:
  m_ObjectHideFlags: 0
  m_PrefabParentObject: {fileID: 0}
  m_PrefabInternal: {fileID: 0}
  m_Name: DoorRooms_locked
  serializedVersion: 6
  m_Legacy: 1
  m_Compressed: 0
  m_UseHighQualityCurve: 1
  m_RotationCurves:
  - curve:
      serializedVersion: 2
      m_Curve:
      - time: 0
        value: {x: 0, y: -0.0002617994, z: 0, w: 0.99999994}
        inSlope: {x: 0, y: -0.032744672, z: 0, w: -0.000014305114}
        outSlope: {x: 0, y: -0.032744672, z: 0, w: -0.000014305114}
        tangentMode: 0
      - time: 0.016666668
        value: {x: 0, y: -0.0008075439, z: 0, w: 0.9999997}
        inSlope: {x: 0, y: -0.036795545, z: 0, w: -0.000032186505}
        outSlope: {x: 0, y: -0.036795545, z: 0, w: -0.000032186505}
        tangentMode: 0
      - time: 0.033333335
        value: {x: 0, y: -0.0014883176, z: 0, w: 0.99999887}
        inSlope: {x: 0, y: -0.042871848, z: 0, w: -0.00006616115}
        outSlope: {x: 0, y: -0.042871848, z: 0, w: -0.00006616115}
        tangentMode: 0
      - time: 0.050000004
        value: {x: 0, y: -0.0022366056, z: 0, w: 0.9999975}
        inSlope: {x: 0, y: -0.044897225, z: 0, w: -0.0001001358}
        outSlope: {x: 0, y: -0.044897225, z: 0, w: -0.0001001358}
        tangentMode: 0
      - time: 0.06666667
        value: {x: 0, y: -0.0029848919, z: 0, w: 0.9999955}
        inSlope: {x: 0, y: -0.042871714, z: 0, w: -0.00012695791}
        outSlope: {x: 0, y: -0.042871714, z: 0, w: -0.00012695791}
        tangentMode: 0
      - time: 0.083333336
        value: {x: 0, y: -0.0036656626, z: 0, w: 0.99999326}
        inSlope: {x: 0, y: -0.03679532, z: 0, w: -0.00013232233}
        outSlope: {x: 0, y: -0.03679532, z: 0, w: -0.00013232233}
        tangentMode: 0
      - time: 0.1
        value: {x: 0, y: -0.0042114025, z: 0, w: 0.9999911}
        inSlope: {x: 0, y: -0.026668083, z: 0, w: -0.000109076514}
        outSlope: {x: 0, y: -0.026668083, z: 0, w: -0.000109076514}
        tangentMode: 0
      - time: 0.11666667
        value: {x: 0, y: -0.0045545986, z: 0, w: 0.9999896}
        inSlope: {x: 0, y: -0.012490097, z: 0, w: -0.00005543232}
        outSlope: {x: 0, y: -0.012490097, z: 0, w: -0.00005543232}
        tangentMode: 0
      - time: 0.13333334
        value: {x: 0, y: -0.004627739, z: 0, w: 0.9999893}
        inSlope: {x: 0, y: 0.005738672, z: 0, w: 0.000025033958}
        outSlope: {x: 0, y: 0.005738672, z: 0, w: 0.000025033958}
        tangentMode: 0
      - time: 0.15
        value: {x: 0, y: -0.0043633096, z: 0, w: 0.99999046}
        inSlope: {x: 0, y: 0.04590969, z: 0, w: 0.00017881395}
        outSlope: {x: 0, y: 0.04590969, z: 0, w: 0.00017881395}
        tangentMode: 0
      - time: 0.16666667
        value: {x: 0, y: -0.0030974161, z: 0, w: 0.99999523}
        inSlope: {x: 0, y: 0.09418276, z: 0, w: 0.0002628565}
        outSlope: {x: 0, y: 0.09418276, z: 0, w: 0.0002628565}
        tangentMode: 0
      - time: 0.18333334
        value: {x: 0, y: -0.0012238845, z: 0, w: 0.9999992}
        inSlope: {x: 0, y: 0.08506851, z: 0, w: 0.00014126302}
        outSlope: {x: 0, y: 0.08506851, z: 0, w: 0.00014126302}
        tangentMode: 0
      - time: 0.2
        value: {x: 0, y: -0.0002617994, z: 0, w: 0.99999994}
        inSlope: {x: 0, y: -0.0018988717, z: 0, w: -0.0000017881393}
        outSlope: {x: 0, y: -0.0018988717, z: 0, w: -0.0000017881393}
        tangentMode: 0
      - time: 0.21666667
        value: {x: 0, y: -0.0012871802, z: 0, w: 0.99999917}
        inSlope: {x: 0, y: -0.0888662, z: 0, w: -0.00015378}
        outSlope: {x: 0, y: -0.0888662, z: 0, w: -0.00015378}
        tangentMode: 0
      - time: 0.23333333
        value: {x: 0, y: -0.0032240057, z: 0, w: 0.9999948}
        inSlope: {x: 0, y: -0.09228389, z: 0, w: -0.00026106837}
        outSlope: {x: 0, y: -0.09228389, z: 0, w: -0.00026106837}
        tangentMode: 0
      - time: 0.25
        value: {x: 0, y: -0.0043633096, z: 0, w: 0.99999046}
        inSlope: {x: 0, y: -0.018798526, z: 0, w: -0.00006616122}
        outSlope: {x: 0, y: -0.018798526, z: 0, w: -0.00006616122}
        tangentMode: 0
      - time: 0.26666668
        value: {x: 0, y: -0.0038506228, z: 0, w: 0.9999926}
        inSlope: {x: 0, y: 0.05639564, z: 0, w: 0.0001931189}
        outSlope: {x: 0, y: 0.05639564, z: 0, w: 0.0001931189}
        tangentMode: 0
      - time: 0.28333336
        value: {x: 0, y: -0.0024834534, z: 0, w: 0.9999969}
        inSlope: {x: 0, y: 0.08459366, z: 0, w: 0.00020563585}
        outSlope: {x: 0, y: 0.08459366, z: 0, w: 0.00020563585}
        tangentMode: 0
      - time: 0.30000004
        value: {x: 0, y: -0.0010308317, z: 0, w: 0.99999946}
        inSlope: {x: 0, y: 0.066649586, z: 0, w: 0.00009119503}
        outSlope: {x: 0, y: 0.066649586, z: 0, w: 0.00009119503}
        tangentMode: 0
      - time: 0.31666672
        value: {x: 0, y: -0.0002617988, z: 0, w: 0.99999994}
        inSlope: {x: 0, y: 0.017991459, z: 0, w: 0.000012516965}
        outSlope: {x: 0, y: 0.017991459, z: 0, w: 0.000012516965}
        tangentMode: 0
      - time: 0.3333334
        value: {x: 0, y: -0.00043111594, z: 0, w: 0.9999999}
        inSlope: {x: 0, y: -0.02582454, z: 0, w: -0.000017881379}
        outSlope: {x: 0, y: -0.02582454, z: 0, w: -0.000017881379}
        tangentMode: 0
      - time: 0.35000008
        value: {x: 0, y: -0.0011226175, z: 0, w: 0.99999934}
        inSlope: {x: 0, y: -0.05003483, z: 0, w: -0.000062584826}
        outSlope: {x: 0, y: -0.05003483, z: 0, w: -0.000062584826}
        tangentMode: 0
      - time: 0.36666676
        value: {x: 0, y: -0.002098945, z: 0, w: 0.9999978}
        inSlope: {x: 0, y: -0.06000364, z: 0, w: -0.00012695779}
        outSlope: {x: 0, y: -0.06000364, z: 0, w: -0.00012695779}
        tangentMode: 0
      - time: 0.38333344
        value: {x: 0, y: -0.0031227404, z: 0, w: 0.9999951}
        inSlope: {x: 0, y: -0.05573099, z: 0, w: -0.00016808495}
        outSlope: {x: 0, y: -0.05573099, z: 0, w: -0.00016808495}
        tangentMode: 0
      - time: 0.40000013
        value: {x: 0, y: -0.003956646, z: 0, w: 0.9999922}
        inSlope: {x: 0, y: -0.037217073, z: 0, w: -0.00013947475}
        outSlope: {x: 0, y: -0.037217073, z: 0, w: -0.00013947475}
        tangentMode: 0
      - time: 0.4166668
        value: {x: 0, y: -0.0043633105, z: 0, w: 0.99999046}
        inSlope: {x: 0, y: -0.011052103, z: 0, w: -0.000046491583}
        outSlope: {x: 0, y: -0.011052103, z: 0, w: -0.000046491583}
        tangentMode: 0
      - time: 0.4333335
        value: {x: 0, y: -0.00432505, z: 0, w: 0.99999064}
        inSlope: {x: 0, y: 0.010093507, z: 0, w: 0.000042915308}
        outSlope: {x: 0, y: 0.010093507, z: 0, w: 0.000042915308}
        tangentMode: 0
      - time: 0.45000017
        value: {x: 0, y: -0.00402686, z: 0, w: 0.9999919}
        inSlope: {x: 0, y: 0.023689196, z: 0, w: 0.000092983166}
        outSlope: {x: 0, y: 0.023689196, z: 0, w: 0.000092983166}
        tangentMode: 0
      - time: 0.46666685
        value: {x: 0, y: -0.0035354095, z: 0, w: 0.99999374}
        inSlope: {x: 0, y: 0.03328469, z: 0, w: 0.000116228955}
        outSlope: {x: 0, y: 0.03328469, z: 0, w: 0.000116228955}
        tangentMode: 0
      - time: 0.48333353
        value: {x: 0, y: -0.0029173694, z: 0, w: 0.99999577}
        inSlope: {x: 0, y: 0.038879957, z: 0, w: 0.00011265278}
        outSlope: {x: 0, y: 0.038879957, z: 0, w: 0.00011265278}
        tangentMode: 0
      - time: 0.5000002
        value: {x: 0, y: -0.002239411, z: 0, w: 0.9999975}
        inSlope: {x: 0, y: 0.04047501, z: 0, w: 0.000089407054}
        outSlope: {x: 0, y: 0.04047501, z: 0, w: 0.000089407054}
        tangentMode: 0
      - time: 0.5166668
        value: {x: 0, y: -0.0015682037, z: 0, w: 0.99999875}
        inSlope: {x: 0, y: 0.038069814, z: 0, w: 0.000060796796}
        outSlope: {x: 0, y: 0.038069814, z: 0, w: 0.000060796796}
        tangentMode: 0
      - time: 0.5333335
        value: {x: 0, y: -0.0009704184, z: 0, w: 0.9999995}
        inSlope: {x: 0, y: 0.03166433, z: 0, w: 0.00003397468}
        outSlope: {x: 0, y: 0.03166433, z: 0, w: 0.00003397468}
        tangentMode: 0
      - time: 0.55000013
        value: {x: 0, y: -0.00051272695, z: 0, w: 0.9999999}
        inSlope: {x: 0, y: 0.021258617, z: 0, w: 0.000012516987}
        outSlope: {x: 0, y: 0.021258617, z: 0, w: 0.000012516987}
        tangentMode: 0
      - time: 0.5666668
        value: {x: 0, y: -0.0002617985, z: 0, w: 0.99999994}
        inSlope: {x: 0, y: 0.010321156, z: 0, w: 0.000003576282}
        outSlope: {x: 0, y: 0.010321156, z: 0, w: 0.000003576282}
        tangentMode: 0
      - time: 0.58333343
        value: {x: 0, y: -0.00016868874, z: 0, w: 1}
        inSlope: {x: 0, y: 0.0037528707, z: 0, w: 0.000001788141}
        outSlope: {x: 0, y: 0.0037528707, z: 0, w: 0.000001788141}
        tangentMode: 0
      - time: 0.6000001
        value: {x: 0, y: -0.00013670293, z: 0, w: 1}
        inSlope: {x: 0, y: 0.00023410987, z: 0, w: 0}
        outSlope: {x: 0, y: 0.00023410987, z: 0, w: 0}
        tangentMode: 0
      - time: 0.61666673
        value: {x: 0, y: -0.00016088509, z: 0, w: 1}
        inSlope: {x: 0, y: -0.0029872905, z: 0, w: 0}
        outSlope: {x: 0, y: -0.0029872905, z: 0, w: 0}
        tangentMode: 0
      - time: 0.6333334
        value: {x: 0, y: -0.00023627919, z: 0, w: 1}
        inSlope: {x: 0, y: -0.005911331, z: 0, w: -0.000001788141}
        outSlope: {x: 0, y: -0.005911331, z: 0, w: -0.000001788141}
        tangentMode: 0
      - time: 0.65000004
        value: {x: 0, y: -0.00035792927, z: 0, w: 0.99999994}
        inSlope: {x: 0, y: -0.008538013, z: 0, w: -0.000003576282}
        outSlope: {x: 0, y: -0.008538013, z: 0, w: -0.000003576282}
        tangentMode: 0
      - time: 0.6666667
        value: {x: 0, y: -0.00052087934, z: 0, w: 0.9999999}
        inSlope: {x: 0, y: -0.010867331, z: 0, w: -0.000005364423}
        outSlope: {x: 0, y: -0.010867331, z: 0, w: -0.000005364423}
        tangentMode: 0
      - time: 0.68333334
        value: {x: 0, y: -0.0007201733, z: 0, w: 0.99999976}
        inSlope: {x: 0, y: -0.01289929, z: 0, w: -0.000010728846}
        outSlope: {x: 0, y: -0.01289929, z: 0, w: -0.000010728846}
        tangentMode: 0
      - time: 0.7
        value: {x: 0, y: -0.00095085526, z: 0, w: 0.9999995}
        inSlope: {x: 0, y: -0.014633883, z: 0, w: -0.000014305128}
        outSlope: {x: 0, y: -0.014633883, z: 0, w: -0.000014305128}
        tangentMode: 0
      - time: 0.71666664
        value: {x: 0, y: -0.0012079689, z: 0, w: 0.9999993}
        inSlope: {x: 0, y: -0.016071118, z: 0, w: -0.000019669551}
        outSlope: {x: 0, y: -0.016071118, z: 0, w: -0.000019669551}
        tangentMode: 0
      - time: 0.7333333
        value: {x: 0, y: -0.0014865587, z: 0, w: 0.99999887}
        inSlope: {x: 0, y: -0.017210998, z: 0, w: -0.000026822116}
        outSlope: {x: 0, y: -0.017210998, z: 0, w: -0.000026822116}
        tangentMode: 0
      - time: 0.74999994
        value: {x: 0, y: -0.0017816683, z: 0, w: 0.9999984}
        inSlope: {x: 0, y: -0.018053506, z: 0, w: -0.000032186537}
        outSlope: {x: 0, y: -0.018053506, z: 0, w: -0.000032186537}
        tangentMode: 0
      - time: 0.7666666
        value: {x: 0, y: -0.0020883416, z: 0, w: 0.9999978}
        inSlope: {x: 0, y: -0.018598657, z: 0, w: -0.000037550963}
        outSlope: {x: 0, y: -0.018598657, z: 0, w: -0.000037550963}
        tangentMode: 0
      - time: 0.78333324
        value: {x: 0, y: -0.002401623, z: 0, w: 0.99999714}
        inSlope: {x: 0, y: -0.018846449, z: 0, w: -0.000044703527}
        outSlope: {x: 0, y: -0.018846449, z: 0, w: -0.000044703527}
        tangentMode: 0
      - time: 0.7999999
        value: {x: 0, y: -0.002716556, z: 0, w: 0.9999963}
        inSlope: {x: 0, y: -0.018796876, z: 0, w: -0.000051856092}
        outSlope: {x: 0, y: -0.018796876, z: 0, w: -0.000051856092}
        tangentMode: 0
      - time: 0.81666654
        value: {x: 0, y: -0.0030281849, z: 0, w: 0.9999954}
        inSlope: {x: 0, y: -0.018449936, z: 0, w: -0.00005543237}
        outSlope: {x: 0, y: -0.018449936, z: 0, w: -0.00005543237}
        tangentMode: 0
      - time: 0.8333332
        value: {x: 0, y: -0.0033315532, z: 0, w: 0.99999446}
        inSlope: {x: 0, y: -0.017805632, z: 0, w: -0.000059008657}
        outSlope: {x: 0, y: -0.017805632, z: 0, w: -0.000059008657}
        tangentMode: 0
      - time: 0.84999985
        value: {x: 0, y: -0.0036217053, z: 0, w: 0.99999344}
        inSlope: {x: 0, y: -0.016863987, z: 0, w: -0.000060796796}
        outSlope: {x: 0, y: -0.016863987, z: 0, w: -0.000060796796}
        tangentMode: 0
      - time: 0.8666665
        value: {x: 0, y: -0.0038936855, z: 0, w: 0.99999243}
        inSlope: {x: 0, y: -0.015624972, z: 0, w: -0.000060796796}
        outSlope: {x: 0, y: -0.015624972, z: 0, w: -0.000060796796}
        tangentMode: 0
      - time: 0.88333315
        value: {x: 0, y: -0.0041425372, z: 0, w: 0.9999914}
        inSlope: {x: 0, y: -0.014088664, z: 0, w: -0.000059008347}
        outSlope: {x: 0, y: -0.014088664, z: 0, w: -0.000059008347}
        tangentMode: 0
      - time: 0.9
        value: {x: 0, y: -0.0043633096, z: 0, w: 0.99999046}
        inSlope: {x: 0, y: -0.013246211, z: 0, w: -0.0000572199}
        outSlope: {x: 0, y: -0.013246211, z: 0, w: -0.0000572199}
        tangentMode: 0
      m_PreInfinity: 2
      m_PostInfinity: 2
      m_RotationOrder: 4
    path: Door_narrow/DoorNarrow_joint
  - curve:
      serializedVersion: 2
      m_Curve:
      - time: 0
        value: {x: 0, y: 0, z: 0.0068009957, w: 0.9999769}
        inSlope: {x: 0, y: 0, z: 3.6124432, w: -0.13346672}
        outSlope: {x: 0, y: 0, z: 3.6124432, w: -0.13346672}
        tangentMode: 0
      - time: 0.016666668
        value: {x: 0, y: 0, z: 0.06700838, w: 0.9977524}
        inSlope: {x: 0, y: 0, z: 3.7316825, w: -0.25858998}
        outSlope: {x: 0, y: 0, z: 3.7316825, w: -0.25858998}
        tangentMode: 0
      - time: 0.033333335
        value: {x: 0, y: 0, z: 0.13119042, w: 0.9913572}
        inSlope: {x: 0, y: 0, z: 3.8971152, w: -0.519939}
        outSlope: {x: 0, y: 0, z: 3.8971152, w: -0.519939}
        tangentMode: 0
      - time: 0.050000004
        value: {x: 0, y: 0, z: 0.19691224, w: 0.9804211}
        inSlope: {x: 0, y: 0, z: 3.9170852, w: -0.7867259}
        outSlope: {x: 0, y: 0, z: 3.9170852, w: -0.7867259}
        tangentMode: 0
      - time: 0.06666667
        value: {x: 0, y: 0, z: 0.26175994, w: 0.965133}
        inSlope: {x: 0, y: 0, z: 3.7956529, w: -1.0251118}
        outSlope: {x: 0, y: 0, z: 3.7956529, w: -1.0251118}
        tangentMode: 0
      - time: 0.083333336
        value: {x: 0, y: 0, z: 0.323434, w: 0.94625074}
        inSlope: {x: 0, y: 0, z: 3.5421414, w: -1.2023182}
        outSlope: {x: 0, y: 0, z: 3.5421414, w: -1.2023182}
        tangentMode: 0
      - time: 0.1
        value: {x: 0, y: 0, z: 0.3798313, w: 0.92505574}
        inSlope: {x: 0, y: 0, z: 3.1698482, w: -1.2897493}
        outSlope: {x: 0, y: 0, z: 3.1698482, w: -1.2897493}
        tangentMode: 0
      - time: 0.11666667
        value: {x: 0, y: 0, z: 0.4290956, w: 0.9032591}
        inSlope: {x: 0, y: 0, z: 2.6936965, w: -1.2656324}
        outSlope: {x: 0, y: 0, z: 2.6936965, w: -1.2656324}
        tangentMode: 0
      - time: 0.13333334
        value: {x: 0, y: 0, z: 0.4696212, w: 0.882868}
        inSlope: {x: 0, y: 0, z: 2.1271229, w: -1.1170058}
        outSlope: {x: 0, y: 0, z: 2.1271229, w: -1.1170058}
        tangentMode: 0
      - time: 0.15
        value: {x: 0, y: 0, z: 0.4999997, w: 0.86602557}
        inSlope: {x: 0, y: 0, z: 1.557787, w: -0.88937056}
        outSlope: {x: 0, y: 0, z: 1.557787, w: -0.88937056}
        tangentMode: 0
      - time: 0.16666667
        value: {x: 0, y: 0, z: 0.52154744, w: 0.8532223}
        inSlope: {x: 0, y: 0, z: 1.0757966, w: -0.65155333}
        outSlope: {x: 0, y: 0, z: 1.0757966, w: -0.65155333}
        tangentMode: 0
      - time: 0.18333334
        value: {x: 0, y: 0, z: 0.5358596, w: 0.8443071}
        inSlope: {x: 0, y: 0, z: 0.6136305, w: -0.38534942}
        outSlope: {x: 0, y: 0, z: 0.6136305, w: -0.38534942}
        tangentMode: 0
      - time: 0.2
        value: {x: 0, y: 0, z: 0.5420018, w: 0.84037733}
        inSlope: {x: 0, y: 0, z: 0.09223939, w: -0.058777932}
        outSlope: {x: 0, y: 0, z: 0.09223939, w: -0.058777932}
        tangentMode: 0
      - time: 0.21666667
        value: {x: 0, y: 0, z: 0.53893423, w: 0.84234786}
        inSlope: {x: 0, y: 0, z: -0.4971439, w: 0.31377915}
        outSlope: {x: 0, y: 0, z: -0.4971439, w: 0.31377915}
        tangentMode: 0
      - time: 0.23333333
        value: {x: 0, y: 0, z: 0.5254303, w: 0.85083663}
        inSlope: {x: 0, y: 0, z: -1.168036, w: 0.71033126}
        outSlope: {x: 0, y: 0, z: -1.168036, w: 0.71033126}
        tangentMode: 0
      - time: 0.25
        value: {x: 0, y: 0, z: 0.4999997, w: 0.86602557}
        inSlope: {x: 0, y: 0, z: -2.197546, w: 1.2327212}
        outSlope: {x: 0, y: 0, z: -2.197546, w: 1.2327212}
        tangentMode: 0
      - time: 0.26666668
        value: {x: 0, y: 0, z: 0.45217875, w: 0.89192736}
        inSlope: {x: 0, y: 0, z: -3.6499782, w: 1.7893109}
        outSlope: {x: 0, y: 0, z: -3.6499782, w: 1.7893109}
        tangentMode: 0
      - time: 0.28333336
        value: {x: 0, y: 0, z: 0.37833366, w: 0.9256693}
        inSlope: {x: 0, y: 0, z: -4.924448, w: 1.9708159}
        outSlope: {x: 0, y: 0, z: -4.924448, w: 1.9708159}
        tangentMode: 0
      - time: 0.30000004
        value: {x: 0, y: 0, z: 0.28803036, w: 0.9576213}
        inSlope: {x: 0, y: 0, z: -5.568427, w: 1.667537}
        outSlope: {x: 0, y: 0, z: -5.568427, w: 1.667537}
        tangentMode: 0
      - time: 0.31666672
        value: {x: 0, y: 0, z: 0.19271927, w: 0.9812539}
        inSlope: {x: 0, y: 0, z: -5.482088, w: 1.1045953}
        outSlope: {x: 0, y: 0, z: -5.482088, w: 1.1045953}
        tangentMode: 0
      - time: 0.3333334
        value: {x: 0, y: 0, z: 0.105293944, w: 0.99444115}
        inSlope: {x: 0, y: 0, z: -4.6105466, w: 0.5395187}
        outSlope: {x: 0, y: 0, z: -4.6105466, w: 0.5395187}
        tangentMode: 0
      - time: 0.35000008
        value: {x: 0, y: 0, z: 0.039034255, w: 0.9992379}
        inSlope: {x: 0, y: 0, z: -2.9547877, w: 0.16607152}
        outSlope: {x: 0, y: 0, z: -2.9547877, w: 0.16607152}
        tangentMode: 0
      - time: 0.36666676
        value: {x: 0, y: 0, z: 0.0068009365, w: 0.9999769}
        inSlope: {x: 0, y: 0, z: -0.8717592, w: 0.021370035}
        outSlope: {x: 0, y: 0, z: -0.8717592, w: 0.021370035}
        tangentMode: 0
      - time: 0.38333344
        value: {x: 0, y: 0, z: 0.009975594, w: 0.99995023}
        inSlope: {x: 0, y: 0, z: 0.9388284, w: -0.021082146}
        outSlope: {x: 0, y: 0, z: 0.9388284, w: -0.021082146}
        tangentMode: 0
      - time: 0.40000013
        value: {x: 0, y: 0, z: 0.038095243, w: 0.99927413}
        inSlope: {x: 0, y: 0, z: 2.2737095, w: -0.1090478}
        outSlope: {x: 0, y: 0, z: 2.2737095, w: -0.1090478}
        tangentMode: 0
      - time: 0.4166668
        value: {x: 0, y: 0, z: 0.08576597, w: 0.9963153}
        inSlope: {x: 0, y: 0, z: 3.2797942, w: -0.306013}
        outSlope: {x: 0, y: 0, z: 3.2797942, w: -0.306013}
        tangentMode: 0
      - time: 0.4333335
        value: {x: 0, y: 0, z: 0.1474218, w: 0.9890737}
        inSlope: {x: 0, y: 0, z: 3.946317, w: -0.60637903}
        outSlope: {x: 0, y: 0, z: 3.946317, w: -0.60637903}
        tangentMode: 0
      - time: 0.45000017
        value: {x: 0, y: 0, z: 0.21730998, w: 0.97610265}
        inSlope: {x: 0, y: 0, z: 4.2664013, w: -0.95809674}
        outSlope: {x: 0, y: 0, z: 4.2664013, w: -0.95809674}
        tangentMode: 0
      - time: 0.46666685
        value: {x: 0, y: 0, z: 0.2896353, w: 0.9571371}
        inSlope: {x: 0, y: 0, z: 4.2454667, w: -1.2809397}
        outSlope: {x: 0, y: 0, z: 4.2454667, w: -1.2809397}
        tangentMode: 0
      - time: 0.48333353
        value: {x: 0, y: 0, z: 0.35882565, w: 0.9334046}
        inSlope: {x: 0, y: 0, z: 3.9051657, w: -1.4857186}
        outSlope: {x: 0, y: 0, z: 3.9051657, w: -1.4857186}
        tangentMode: 0
      - time: 0.5000002
        value: {x: 0, y: 0, z: 0.4198075, w: 0.90761316}
        inSlope: {x: 0, y: 0, z: 3.2798762, w: -1.4927455}
        outSlope: {x: 0, y: 0, z: 3.2798762, w: -1.4927455}
        tangentMode: 0
      - time: 0.5166668
        value: {x: 0, y: 0, z: 0.46815476, w: 0.8836465}
        inSlope: {x: 0, y: 0, z: 2.405773, w: -1.2476307}
        outSlope: {x: 0, y: 0, z: 2.405773, w: -1.2476307}
        tangentMode: 0
      - time: 0.5333335
        value: {x: 0, y: 0, z: 0.49999985, w: 0.8660255}
        inSlope: {x: 0, y: 0, z: 1.4805834, w: -0.8390351}
        outSlope: {x: 0, y: 0, z: 1.4805834, w: -0.8390351}
        tangentMode: 0
      - time: 0.55000013
        value: {x: 0, y: 0, z: 0.5175075, w: 0.8556787}
        inSlope: {x: 0, y: 0, z: 0.7885013, w: -0.4714845}
        outSlope: {x: 0, y: 0, z: 0.7885013, w: -0.4714845}
        tangentMode: 0
      - time: 0.5666668
        value: {x: 0, y: 0, z: 0.5262832, w: 0.8503094}
        inSlope: {x: 0, y: 0, z: 0.30597058, w: -0.18755811}
        outSlope: {x: 0, y: 0, z: 0.30597058, w: -0.18755811}
        tangentMode: 0
      - time: 0.58333343
        value: {x: 0, y: 0, z: 0.5277065, w: 0.84942675}
        inSlope: {x: 0, y: 0, z: -0.097770184, w: 0.0602532}
        outSlope: {x: 0, y: 0, z: -0.097770184, w: 0.0602532}
        tangentMode: 0
      - time: 0.6000001
        value: {x: 0, y: 0, z: 0.5230242, w: 0.8523178}
        inSlope: {x: 0, y: 0, z: -0.42898756, w: 0.26155674}
        outSlope: {x: 0, y: 0, z: -0.42898756, w: 0.26155674}
        tangentMode: 0
      - time: 0.61666673
        value: {x: 0, y: 0, z: 0.51340693, w: 0.8581453}
        inSlope: {x: 0, y: 0, z: -0.6907374, w: 0.4112349}
        outSlope: {x: 0, y: 0, z: -0.6907374, w: 0.4112349}
        tangentMode: 0
      - time: 0.6333334
        value: {x: 0, y: 0, z: 0.49999964, w: 0.8660256}
        inSlope: {x: 0, y: 0, z: -0.91026926, w: 0.52318144}
        outSlope: {x: 0, y: 0, z: -0.91026926, w: 0.52318144}
        tangentMode: 0
      - time: 0.65000004
        value: {x: 0, y: 0, z: 0.48306465, w: 0.87558466}
        inSlope: {x: 0, y: 0, z: -1.1314435, w: 0.62117517}
        outSlope: {x: 0, y: 0, z: -1.1314435, w: 0.62117517}
        tangentMode: 0
      - time: 0.6666667
        value: {x: 0, y: 0, z: 0.4622849, w: 0.88673145}
        inSlope: {x: 0, y: 0, z: -1.3535244, w: 0.702482}
        outSlope: {x: 0, y: 0, z: -1.3535244, w: 0.702482}
        tangentMode: 0
      - time: 0.68333334
        value: {x: 0, y: 0, z: 0.4379472, w: 0.8990007}
        inSlope: {x: 0, y: 0, z: -1.5579313, w: 0.7558472}
        outSlope: {x: 0, y: 0, z: -1.5579313, w: 0.7558472}
        tangentMode: 0
      - time: 0.7
        value: {x: 0, y: 0, z: 0.4103539, w: 0.9119263}
        inSlope: {x: 0, y: 0, z: -1.7434769, w: 0.78165185}
        outSlope: {x: 0, y: 0, z: -1.7434769, w: 0.78165185}
        tangentMode: 0
      - time: 0.71666664
        value: {x: 0, y: 0, z: 0.37983137, w: 0.92505574}
        inSlope: {x: 0, y: 0, z: -1.9085402, w: 0.78109396}
        outSlope: {x: 0, y: 0, z: -1.9085402, w: 0.78109396}
        tangentMode: 0
      - time: 0.7333333
        value: {x: 0, y: 0, z: 0.34673595, w: 0.9379628}
        inSlope: {x: 0, y: 0, z: -2.0512176, w: 0.75613153}
        outSlope: {x: 0, y: 0, z: -2.0512176, w: 0.75613153}
        tangentMode: 0
      - time: 0.74999994
        value: {x: 0, y: 0, z: 0.3114575, w: 0.9502601}
        inSlope: {x: 0, y: 0, z: -2.1694987, w: 0.70941997}
        outSlope: {x: 0, y: 0, z: -2.1694987, w: 0.70941997}
        tangentMode: 0
      - time: 0.7666666
        value: {x: 0, y: 0, z: 0.2744194, w: 0.9616101}
        inSlope: {x: 0, y: 0, z: -2.2614253, w: 0.64422965}
        outSlope: {x: 0, y: 0, z: -2.2614253, w: 0.64422965}
        tangentMode: 0
      - time: 0.78333324
        value: {x: 0, y: 0, z: 0.23607674, w: 0.9717344}
        inSlope: {x: 0, y: 0, z: -2.3252106, w: 0.56433016}
        outSlope: {x: 0, y: 0, z: -2.3252106, w: 0.56433016}
        tangentMode: 0
      - time: 0.7999999
        value: {x: 0, y: 0, z: 0.19691245, w: 0.98042107}
        inSlope: {x: 0, y: 0, z: -2.3593655, w: 0.4738663}
        outSlope: {x: 0, y: 0, z: -2.3593655, w: 0.4738663}
        tangentMode: 0
      - time: 0.81666654
        value: {x: 0, y: 0, z: 0.1574313, w: 0.98752993}
        inSlope: {x: 0, y: 0, z: -2.3627877, w: 0.3772298}
        outSlope: {x: 0, y: 0, z: -2.3627877, w: 0.3772298}
        tangentMode: 0
      - time: 0.8333332
        value: {x: 0, y: 0, z: 0.11815294, w: 0.9929954}
        inSlope: {x: 0, y: 0, z: -2.3348026, w: 0.27889815}
        outSlope: {x: 0, y: 0, z: -2.3348026, w: 0.27889815}
        tangentMode: 0
      - time: 0.84999985
        value: {x: 0, y: 0, z: 0.079604626, w: 0.9968265}
        inSlope: {x: 0, y: 0, z: -2.2751758, w: 0.18327016}
        outSlope: {x: 0, y: 0, z: -2.2751758, w: 0.18327016}
        tangentMode: 0
      - time: 0.8666665
        value: {x: 0, y: 0, z: 0.042313818, w: 0.9991044}
        inSlope: {x: 0, y: 0, z: -2.1840997, w: 0.09451013}
        outSlope: {x: 0, y: 0, z: -2.1840997, w: 0.09451013}
        tangentMode: 0
      - time: 0.8833333
        value: {x: 0, y: 0, z: 0.0068009957, w: 0.9999769}
        inSlope: {x: 0, y: 0, z: -2.1307485, w: 0.052349057}
        outSlope: {x: 0, y: 0, z: -2.1307485, w: 0.052349057}
        tangentMode: 0
      m_PreInfinity: 2
      m_PostInfinity: 2
      m_RotationOrder: 4
    path: Door_narrow/DoorNarrow_joint/DoorNarrow_handle
  m_CompressedRotationCurves: []
  m_EulerCurves: []
  m_PositionCurves: []
  m_ScaleCurves: []
  m_FloatCurves: []
  m_PPtrCurves: []
  m_SampleRate: 60
  m_WrapMode: 0
  m_Bounds:
    m_Center: {x: 0, y: 0, z: 0}
    m_Extent: {x: 0, y: 0, z: 0}
  m_ClipBindingConstant:
    genericBindings: []
    pptrCurveMapping: []
  m_AnimationClipSettings:
    serializedVersion: 2
    m_AdditiveReferencePoseClip: {fileID: 0}
    m_AdditiveReferencePoseTime: 0
    m_StartTime: 0
    m_StopTime: 0.9
    m_OrientationOffsetY: 0
    m_Level: 0
    m_CycleOffset: 0
    m_HasAdditiveReferencePose: 0
    m_LoopTime: 0
    m_LoopBlend: 0
    m_LoopBlendOrientation: 0
    m_LoopBlendPositionY: 0
    m_LoopBlendPositionXZ: 0
    m_KeepOriginalOrientation: 0
    m_KeepOriginalPositionY: 1
    m_KeepOriginalPositionXZ: 0
    m_HeightFromFeet: 0
    m_Mirror: 0
  m_EditorCurves:
  - curve:
      serializedVersion: 2
      m_Curve:
      - time: 0
        value: 0
        inSlope: 0
        outSlope: 0
        tangentMode: 0
      - time: 0.016666668
        value: 0
        inSlope: 0
        outSlope: 0
        tangentMode: 0
      - time: 0.033333335
        value: 0
        inSlope: 0
        outSlope: 0
        tangentMode: 0
      - time: 0.050000004
        value: 0
        inSlope: 0
        outSlope: 0
        tangentMode: 0
      - time: 0.06666667
        value: 0
        inSlope: 0
        outSlope: 0
        tangentMode: 0
      - time: 0.083333336
        value: 0
        inSlope: 0
        outSlope: 0
        tangentMode: 0
      - time: 0.1
        value: 0
        inSlope: 0
        outSlope: 0
        tangentMode: 0
      - time: 0.11666667
        value: 0
        inSlope: 0
        outSlope: 0
        tangentMode: 0
      - time: 0.13333334
        value: 0
        inSlope: 0
        outSlope: 0
        tangentMode: 0
      - time: 0.15
        value: 0
        inSlope: 0
        outSlope: 0
        tangentMode: 0
      - time: 0.16666667
        value: 0
        inSlope: 0
        outSlope: 0
        tangentMode: 0
      - time: 0.18333334
        value: 0
        inSlope: 0
        outSlope: 0
        tangentMode: 0
      - time: 0.2
        value: 0
        inSlope: 0
        outSlope: 0
        tangentMode: 0
      - time: 0.21666667
        value: 0
        inSlope: 0
        outSlope: 0
        tangentMode: 0
      - time: 0.23333333
        value: 0
        inSlope: 0
        outSlope: 0
        tangentMode: 0
      - time: 0.25
        value: 0
        inSlope: 0
        outSlope: 0
        tangentMode: 0
      - time: 0.26666668
        value: 0
        inSlope: 0
        outSlope: 0
        tangentMode: 0
      - time: 0.28333336
        value: 0
        inSlope: 0
        outSlope: 0
        tangentMode: 0
      - time: 0.30000004
        value: 0
        inSlope: 0
        outSlope: 0
        tangentMode: 0
      - time: 0.31666672
        value: 0
        inSlope: 0
        outSlope: 0
        tangentMode: 0
      - time: 0.3333334
        value: 0
        inSlope: 0
        outSlope: 0
        tangentMode: 0
      - time: 0.35000008
        value: 0
        inSlope: 0
        outSlope: 0
        tangentMode: 0
      - time: 0.36666676
        value: 0
        inSlope: 0
        outSlope: 0
        tangentMode: 0
      - time: 0.38333344
        value: 0
        inSlope: 0
        outSlope: 0
        tangentMode: 0
      - time: 0.40000013
        value: 0
        inSlope: 0
        outSlope: 0
        tangentMode: 0
      - time: 0.4166668
        value: 0
        inSlope: 0
        outSlope: 0
        tangentMode: 0
      - time: 0.4333335
        value: 0
        inSlope: 0
        outSlope: 0
        tangentMode: 0
      - time: 0.45000017
        value: 0
        inSlope: 0
        outSlope: 0
        tangentMode: 0
      - time: 0.46666685
        value: 0
        inSlope: 0
        outSlope: 0
        tangentMode: 0
      - time: 0.48333353
        value: 0
        inSlope: 0
        outSlope: 0
        tangentMode: 0
      - time: 0.5000002
        value: 0
        inSlope: 0
        outSlope: 0
        tangentMode: 0
      - time: 0.5166668
        value: 0
        inSlope: 0
        outSlope: 0
        tangentMode: 0
      - time: 0.5333335
        value: 0
        inSlope: 0
        outSlope: 0
        tangentMode: 0
      - time: 0.55000013
        value: 0
        inSlope: 0
        outSlope: 0
        tangentMode: 0
      - time: 0.5666668
        value: 0
        inSlope: 0
        outSlope: 0
        tangentMode: 0
      - time: 0.58333343
        value: 0
        inSlope: 0
        outSlope: 0
        tangentMode: 0
      - time: 0.6000001
        value: 0
        inSlope: 0
        outSlope: 0
        tangentMode: 0
      - time: 0.61666673
        value: 0
        inSlope: 0
        outSlope: 0
        tangentMode: 0
      - time: 0.6333334
        value: 0
        inSlope: 0
        outSlope: 0
        tangentMode: 0
      - time: 0.65000004
        value: 0
        inSlope: 0
        outSlope: 0
        tangentMode: 0
      - time: 0.6666667
        value: 0
        inSlope: 0
        outSlope: 0
        tangentMode: 0
      - time: 0.68333334
        value: 0
        inSlope: 0
        outSlope: 0
        tangentMode: 0
      - time: 0.7
        value: 0
        inSlope: 0
        outSlope: 0
        tangentMode: 0
      - time: 0.71666664
        value: 0
        inSlope: 0
        outSlope: 0
        tangentMode: 0
      - time: 0.7333333
        value: 0
        inSlope: 0
        outSlope: 0
        tangentMode: 0
      - time: 0.74999994
        value: 0
        inSlope: 0
        outSlope: 0
        tangentMode: 0
      - time: 0.7666666
        value: 0
        inSlope: 0
        outSlope: 0
        tangentMode: 0
      - time: 0.78333324
        value: 0
        inSlope: 0
        outSlope: 0
        tangentMode: 0
      - time: 0.7999999
        value: 0
        inSlope: 0
        outSlope: 0
        tangentMode: 0
      - time: 0.81666654
        value: 0
        inSlope: 0
        outSlope: 0
        tangentMode: 0
      - time: 0.8333332
        value: 0
        inSlope: 0
        outSlope: 0
        tangentMode: 0
      - time: 0.84999985
        value: 0
        inSlope: 0
        outSlope: 0
        tangentMode: 0
      - time: 0.8666665
        value: 0
        inSlope: 0
        outSlope: 0
        tangentMode: 0
      - time: 0.88333315
        value: 0
        inSlope: 0
        outSlope: 0
        tangentMode: 0
      - time: 0.9
        value: 0
        inSlope: 0
        outSlope: 0
        tangentMode: 0
      m_PreInfinity: 2
      m_PostInfinity: 2
      m_RotationOrder: 4
    attribute: m_LocalRotation.x
    path: Door_narrow/DoorNarrow_joint
    classID: 4
    script: {fileID: 0}
  - curve:
      serializedVersion: 2
      m_Curve:
      - time: 0
        value: -0.0002617994
        inSlope: -0.032744672
        outSlope: -0.032744672
        tangentMode: 0
      - time: 0.016666668
        value: -0.0008075439
        inSlope: -0.036795545
        outSlope: -0.036795545
        tangentMode: 0
      - time: 0.033333335
        value: -0.0014883176
        inSlope: -0.042871848
        outSlope: -0.042871848
        tangentMode: 0
      - time: 0.050000004
        value: -0.0022366056
        inSlope: -0.044897225
        outSlope: -0.044897225
        tangentMode: 0
      - time: 0.06666667
        value: -0.0029848919
        inSlope: -0.042871714
        outSlope: -0.042871714
        tangentMode: 0
      - time: 0.083333336
        value: -0.0036656626
        inSlope: -0.03679532
        outSlope: -0.03679532
        tangentMode: 0
      - time: 0.1
        value: -0.0042114025
        inSlope: -0.026668083
        outSlope: -0.026668083
        tangentMode: 0
      - time: 0.11666667
        value: -0.0045545986
        inSlope: -0.012490097
        outSlope: -0.012490097
        tangentMode: 0
      - time: 0.13333334
        value: -0.004627739
        inSlope: 0.005738672
        outSlope: 0.005738672
        tangentMode: 0
      - time: 0.15
        value: -0.0043633096
        inSlope: 0.04590969
        outSlope: 0.04590969
        tangentMode: 0
      - time: 0.16666667
        value: -0.0030974161
        inSlope: 0.09418276
        outSlope: 0.09418276
        tangentMode: 0
      - time: 0.18333334
        value: -0.0012238845
        inSlope: 0.08506851
        outSlope: 0.08506851
        tangentMode: 0
      - time: 0.2
        value: -0.0002617994
        inSlope: -0.0018988717
        outSlope: -0.0018988717
        tangentMode: 0
      - time: 0.21666667
        value: -0.0012871802
        inSlope: -0.0888662
        outSlope: -0.0888662
        tangentMode: 0
      - time: 0.23333333
        value: -0.0032240057
        inSlope: -0.09228389
        outSlope: -0.09228389
        tangentMode: 0
      - time: 0.25
        value: -0.0043633096
        inSlope: -0.018798526
        outSlope: -0.018798526
        tangentMode: 0
      - time: 0.26666668
        value: -0.0038506228
        inSlope: 0.05639564
        outSlope: 0.05639564
        tangentMode: 0
      - time: 0.28333336
        value: -0.0024834534
        inSlope: 0.08459366
        outSlope: 0.08459366
        tangentMode: 0
      - time: 0.30000004
        value: -0.0010308317
        inSlope: 0.066649586
        outSlope: 0.066649586
        tangentMode: 0
      - time: 0.31666672
        value: -0.0002617988
        inSlope: 0.017991459
        outSlope: 0.017991459
        tangentMode: 0
      - time: 0.3333334
        value: -0.00043111594
        inSlope: -0.02582454
        outSlope: -0.02582454
        tangentMode: 0
      - time: 0.35000008
        value: -0.0011226175
        inSlope: -0.05003483
        outSlope: -0.05003483
        tangentMode: 0
      - time: 0.36666676
        value: -0.002098945
        inSlope: -0.06000364
        outSlope: -0.06000364
        tangentMode: 0
      - time: 0.38333344
        value: -0.0031227404
        inSlope: -0.05573099
        outSlope: -0.05573099
        tangentMode: 0
      - time: 0.40000013
        value: -0.003956646
        inSlope: -0.037217073
        outSlope: -0.037217073
        tangentMode: 0
      - time: 0.4166668
        value: -0.0043633105
        inSlope: -0.011052103
        outSlope: -0.011052103
        tangentMode: 0
      - time: 0.4333335
        value: -0.00432505
        inSlope: 0.010093507
        outSlope: 0.010093507
        tangentMode: 0
      - time: 0.45000017
        value: -0.00402686
        inSlope: 0.023689196
        outSlope: 0.023689196
        tangentMode: 0
      - time: 0.46666685
        value: -0.0035354095
        inSlope: 0.03328469
        outSlope: 0.03328469
        tangentMode: 0
      - time: 0.48333353
        value: -0.0029173694
        inSlope: 0.038879957
        outSlope: 0.038879957
        tangentMode: 0
      - time: 0.5000002
        value: -0.002239411
        inSlope: 0.04047501
        outSlope: 0.04047501
        tangentMode: 0
      - time: 0.5166668
        value: -0.0015682037
        inSlope: 0.038069814
        outSlope: 0.038069814
        tangentMode: 0
      - time: 0.5333335
        value: -0.0009704184
        inSlope: 0.03166433
        outSlope: 0.03166433
        tangentMode: 0
      - time: 0.55000013
        value: -0.00051272695
        inSlope: 0.021258617
        outSlope: 0.021258617
        tangentMode: 0
      - time: 0.5666668
        value: -0.0002617985
        inSlope: 0.010321156
        outSlope: 0.010321156
        tangentMode: 0
      - time: 0.58333343
        value: -0.00016868874
        inSlope: 0.0037528707
        outSlope: 0.0037528707
        tangentMode: 0
      - time: 0.6000001
        value: -0.00013670293
        inSlope: 0.00023410987
        outSlope: 0.00023410987
        tangentMode: 0
      - time: 0.61666673
        value: -0.00016088509
        inSlope: -0.0029872905
        outSlope: -0.0029872905
        tangentMode: 0
      - time: 0.6333334
        value: -0.00023627919
        inSlope: -0.005911331
        outSlope: -0.005911331
        tangentMode: 0
      - time: 0.65000004
        value: -0.00035792927
        inSlope: -0.008538013
        outSlope: -0.008538013
        tangentMode: 0
      - time: 0.6666667
        value: -0.00052087934
        inSlope: -0.010867331
        outSlope: -0.010867331
        tangentMode: 0
      - time: 0.68333334
        value: -0.0007201733
        inSlope: -0.01289929
        outSlope: -0.01289929
        tangentMode: 0
      - time: 0.7
        value: -0.00095085526
        inSlope: -0.014633883
        outSlope: -0.014633883
        tangentMode: 0
      - time: 0.71666664
        value: -0.0012079689
        inSlope: -0.016071118
        outSlope: -0.016071118
        tangentMode: 0
      - time: 0.7333333
        value: -0.0014865587
        inSlope: -0.017210998
        outSlope: -0.017210998
        tangentMode: 0
      - time: 0.74999994
        value: -0.0017816683
        inSlope: -0.018053506
        outSlope: -0.018053506
        tangentMode: 0
      - time: 0.7666666
        value: -0.0020883416
        inSlope: -0.018598657
        outSlope: -0.018598657
        tangentMode: 0
      - time: 0.78333324
        value: -0.002401623
        inSlope: -0.018846449
        outSlope: -0.018846449
        tangentMode: 0
      - time: 0.7999999
        value: -0.002716556
        inSlope: -0.018796876
        outSlope: -0.018796876
        tangentMode: 0
      - time: 0.81666654
        value: -0.0030281849
        inSlope: -0.018449936
        outSlope: -0.018449936
        tangentMode: 0
      - time: 0.8333332
        value: -0.0033315532
        inSlope: -0.017805632
        outSlope: -0.017805632
        tangentMode: 0
      - time: 0.84999985
        value: -0.0036217053
        inSlope: -0.016863987
        outSlope: -0.016863987
        tangentMode: 0
      - time: 0.8666665
        value: -0.0038936855
        inSlope: -0.015624972
        outSlope: -0.015624972
        tangentMode: 0
      - time: 0.88333315
        value: -0.0041425372
        inSlope: -0.014088664
        outSlope: -0.014088664
        tangentMode: 0
      - time: 0.9
        value: -0.0043633096
        inSlope: -0.013246211
        outSlope: -0.013246211
        tangentMode: 0
      m_PreInfinity: 2
      m_PostInfinity: 2
      m_RotationOrder: 4
    attribute: m_LocalRotation.y
    path: Door_narrow/DoorNarrow_joint
    classID: 4
    script: {fileID: 0}
  - curve:
      serializedVersion: 2
      m_Curve:
      - time: 0
        value: 0
        inSlope: 0
        outSlope: 0
        tangentMode: 0
      - time: 0.016666668
        value: 0
        inSlope: 0
        outSlope: 0
        tangentMode: 0
      - time: 0.033333335
        value: 0
        inSlope: 0
        outSlope: 0
        tangentMode: 0
      - time: 0.050000004
        value: 0
        inSlope: 0
        outSlope: 0
        tangentMode: 0
      - time: 0.06666667
        value: 0
        inSlope: 0
        outSlope: 0
        tangentMode: 0
      - time: 0.083333336
        value: 0
        inSlope: 0
        outSlope: 0
        tangentMode: 0
      - time: 0.1
        value: 0
        inSlope: 0
        outSlope: 0
        tangentMode: 0
      - time: 0.11666667
        value: 0
        inSlope: 0
        outSlope: 0
        tangentMode: 0
      - time: 0.13333334
        value: 0
        inSlope: 0
        outSlope: 0
        tangentMode: 0
      - time: 0.15
        value: 0
        inSlope: 0
        outSlope: 0
        tangentMode: 0
      - time: 0.16666667
        value: 0
        inSlope: 0
        outSlope: 0
        tangentMode: 0
      - time: 0.18333334
        value: 0
        inSlope: 0
        outSlope: 0
        tangentMode: 0
      - time: 0.2
        value: 0
        inSlope: 0
        outSlope: 0
        tangentMode: 0
      - time: 0.21666667
        value: 0
        inSlope: 0
        outSlope: 0
        tangentMode: 0
      - time: 0.23333333
        value: 0
        inSlope: 0
        outSlope: 0
        tangentMode: 0
      - time: 0.25
        value: 0
        inSlope: 0
        outSlope: 0
        tangentMode: 0
      - time: 0.26666668
        value: 0
        inSlope: 0
        outSlope: 0
        tangentMode: 0
      - time: 0.28333336
        value: 0
        inSlope: 0
        outSlope: 0
        tangentMode: 0
      - time: 0.30000004
        value: 0
        inSlope: 0
        outSlope: 0
        tangentMode: 0
      - time: 0.31666672
        value: 0
        inSlope: 0
        outSlope: 0
        tangentMode: 0
      - time: 0.3333334
        value: 0
        inSlope: 0
        outSlope: 0
        tangentMode: 0
      - time: 0.35000008
        value: 0
        inSlope: 0
        outSlope: 0
        tangentMode: 0
      - time: 0.36666676
        value: 0
        inSlope: 0
        outSlope: 0
        tangentMode: 0
      - time: 0.38333344
        value: 0
        inSlope: 0
        outSlope: 0
        tangentMode: 0
      - time: 0.40000013
        value: 0
        inSlope: 0
        outSlope: 0
        tangentMode: 0
      - time: 0.4166668
        value: 0
        inSlope: 0
        outSlope: 0
        tangentMode: 0
      - time: 0.4333335
        value: 0
        inSlope: 0
        outSlope: 0
        tangentMode: 0
      - time: 0.45000017
        value: 0
        inSlope: 0
        outSlope: 0
        tangentMode: 0
      - time: 0.46666685
        value: 0
        inSlope: 0
        outSlope: 0
        tangentMode: 0
      - time: 0.48333353
        value: 0
        inSlope: 0
        outSlope: 0
        tangentMode: 0
      - time: 0.5000002
        value: 0
        inSlope: 0
        outSlope: 0
        tangentMode: 0
      - time: 0.5166668
        value: 0
        inSlope: 0
        outSlope: 0
        tangentMode: 0
      - time: 0.5333335
        value: 0
        inSlope: 0
        outSlope: 0
        tangentMode: 0
      - time: 0.55000013
        value: 0
        inSlope: 0
        outSlope: 0
        tangentMode: 0
      - time: 0.5666668
        value: 0
        inSlope: 0
        outSlope: 0
        tangentMode: 0
      - time: 0.58333343
        value: 0
        inSlope: 0
        outSlope: 0
        tangentMode: 0
      - time: 0.6000001
        value: 0
        inSlope: 0
        outSlope: 0
        tangentMode: 0
      - time: 0.61666673
        value: 0
        inSlope: 0
        outSlope: 0
        tangentMode: 0
      - time: 0.6333334
        value: 0
        inSlope: 0
        outSlope: 0
        tangentMode: 0
      - time: 0.65000004
        value: 0
        inSlope: 0
        outSlope: 0
        tangentMode: 0
      - time: 0.6666667
        value: 0
        inSlope: 0
        outSlope: 0
        tangentMode: 0
      - time: 0.68333334
        value: 0
        inSlope: 0
        outSlope: 0
        tangentMode: 0
      - time: 0.7
        value: 0
        inSlope: 0
        outSlope: 0
        tangentMode: 0
      - time: 0.71666664
        value: 0
        inSlope: 0
        outSlope: 0
        tangentMode: 0
      - time: 0.7333333
        value: 0
        inSlope: 0
        outSlope: 0
        tangentMode: 0
      - time: 0.74999994
        value: 0
        inSlope: 0
        outSlope: 0
        tangentMode: 0
      - time: 0.7666666
        value: 0
        inSlope: 0
        outSlope: 0
        tangentMode: 0
      - time: 0.78333324
        value: 0
        inSlope: 0
        outSlope: 0
        tangentMode: 0
      - time: 0.7999999
        value: 0
        inSlope: 0
        outSlope: 0
        tangentMode: 0
      - time: 0.81666654
        value: 0
        inSlope: 0
        outSlope: 0
        tangentMode: 0
      - time: 0.8333332
        value: 0
        inSlope: 0
        outSlope: 0
        tangentMode: 0
      - time: 0.84999985
        value: 0
        inSlope: 0
        outSlope: 0
        tangentMode: 0
      - time: 0.8666665
        value: 0
        inSlope: 0
        outSlope: 0
        tangentMode: 0
      - time: 0.88333315
        value: 0
        inSlope: 0
        outSlope: 0
        tangentMode: 0
      - time: 0.9
        value: 0
        inSlope: 0
        outSlope: 0
        tangentMode: 0
      m_PreInfinity: 2
      m_PostInfinity: 2
      m_RotationOrder: 4
    attribute: m_LocalRotation.z
    path: Door_narrow/DoorNarrow_joint
    classID: 4
    script: {fileID: 0}
  - curve:
      serializedVersion: 2
      m_Curve:
      - time: 0
        value: 0.99999994
        inSlope: -0.000014305114
        outSlope: -0.000014305114
        tangentMode: 0
      - time: 0.016666668
        value: 0.9999997
        inSlope: -0.000032186505
        outSlope: -0.000032186505
        tangentMode: 0
      - time: 0.033333335
        value: 0.99999887
        inSlope: -0.00006616115
        outSlope: -0.00006616115
        tangentMode: 0
      - time: 0.050000004
        value: 0.9999975
        inSlope: -0.0001001358
        outSlope: -0.0001001358
        tangentMode: 0
      - time: 0.06666667
        value: 0.9999955
        inSlope: -0.00012695791
        outSlope: -0.00012695791
        tangentMode: 0
      - time: 0.083333336
        value: 0.99999326
        inSlope: -0.00013232233
        outSlope: -0.00013232233
        tangentMode: 0
      - time: 0.1
        value: 0.9999911
        inSlope: -0.000109076514
        outSlope: -0.000109076514
        tangentMode: 0
      - time: 0.11666667
        value: 0.9999896
        inSlope: -0.00005543232
        outSlope: -0.00005543232
        tangentMode: 0
      - time: 0.13333334
        value: 0.9999893
        inSlope: 0.000025033958
        outSlope: 0.000025033958
        tangentMode: 0
      - time: 0.15
        value: 0.99999046
        inSlope: 0.00017881395
        outSlope: 0.00017881395
        tangentMode: 0
      - time: 0.16666667
        value: 0.99999523
        inSlope: 0.0002628565
        outSlope: 0.0002628565
        tangentMode: 0
      - time: 0.18333334
        value: 0.9999992
        inSlope: 0.00014126302
        outSlope: 0.00014126302
        tangentMode: 0
      - time: 0.2
        value: 0.99999994
        inSlope: -0.0000017881393
        outSlope: -0.0000017881393
        tangentMode: 0
      - time: 0.21666667
        value: 0.99999917
        inSlope: -0.00015378
        outSlope: -0.00015378
        tangentMode: 0
      - time: 0.23333333
        value: 0.9999948
        inSlope: -0.00026106837
        outSlope: -0.00026106837
        tangentMode: 0
      - time: 0.25
        value: 0.99999046
        inSlope: -0.00006616122
        outSlope: -0.00006616122
        tangentMode: 0
      - time: 0.26666668
        value: 0.9999926
        inSlope: 0.0001931189
        outSlope: 0.0001931189
        tangentMode: 0
      - time: 0.28333336
        value: 0.9999969
        inSlope: 0.00020563585
        outSlope: 0.00020563585
        tangentMode: 0
      - time: 0.30000004
        value: 0.99999946
        inSlope: 0.00009119503
        outSlope: 0.00009119503
        tangentMode: 0
      - time: 0.31666672
        value: 0.99999994
        inSlope: 0.000012516965
        outSlope: 0.000012516965
        tangentMode: 0
      - time: 0.3333334
        value: 0.9999999
        inSlope: -0.000017881379
        outSlope: -0.000017881379
        tangentMode: 0
      - time: 0.35000008
        value: 0.99999934
        inSlope: -0.000062584826
        outSlope: -0.000062584826
        tangentMode: 0
      - time: 0.36666676
        value: 0.9999978
        inSlope: -0.00012695779
        outSlope: -0.00012695779
        tangentMode: 0
      - time: 0.38333344
        value: 0.9999951
        inSlope: -0.00016808495
        outSlope: -0.00016808495
        tangentMode: 0
      - time: 0.40000013
        value: 0.9999922
        inSlope: -0.00013947475
        outSlope: -0.00013947475
        tangentMode: 0
      - time: 0.4166668
        value: 0.99999046
        inSlope: -0.000046491583
        outSlope: -0.000046491583
        tangentMode: 0
      - time: 0.4333335
        value: 0.99999064
        inSlope: 0.000042915308
        outSlope: 0.000042915308
        tangentMode: 0
      - time: 0.45000017
        value: 0.9999919
        inSlope: 0.000092983166
        outSlope: 0.000092983166
        tangentMode: 0
      - time: 0.46666685
        value: 0.99999374
        inSlope: 0.000116228955
        outSlope: 0.000116228955
        tangentMode: 0
      - time: 0.48333353
        value: 0.99999577
        inSlope: 0.00011265278
        outSlope: 0.00011265278
        tangentMode: 0
      - time: 0.5000002
        value: 0.9999975
        inSlope: 0.000089407054
        outSlope: 0.000089407054
        tangentMode: 0
      - time: 0.5166668
        value: 0.99999875
        inSlope: 0.000060796796
        outSlope: 0.000060796796
        tangentMode: 0
      - time: 0.5333335
        value: 0.9999995
        inSlope: 0.00003397468
        outSlope: 0.00003397468
        tangentMode: 0
      - time: 0.55000013
        value: 0.9999999
        inSlope: 0.000012516987
        outSlope: 0.000012516987
        tangentMode: 0
      - time: 0.5666668
        value: 0.99999994
        inSlope: 0.000003576282
        outSlope: 0.000003576282
        tangentMode: 0
      - time: 0.58333343
        value: 1
        inSlope: 0.000001788141
        outSlope: 0.000001788141
        tangentMode: 0
      - time: 0.6000001
        value: 1
        inSlope: 0
        outSlope: 0
        tangentMode: 0
      - time: 0.61666673
        value: 1
        inSlope: 0
        outSlope: 0
        tangentMode: 0
      - time: 0.6333334
        value: 1
        inSlope: -0.000001788141
        outSlope: -0.000001788141
        tangentMode: 0
      - time: 0.65000004
        value: 0.99999994
        inSlope: -0.000003576282
        outSlope: -0.000003576282
        tangentMode: 0
      - time: 0.6666667
        value: 0.9999999
        inSlope: -0.000005364423
        outSlope: -0.000005364423
        tangentMode: 0
      - time: 0.68333334
        value: 0.99999976
        inSlope: -0.000010728846
        outSlope: -0.000010728846
        tangentMode: 0
      - time: 0.7
        value: 0.9999995
        inSlope: -0.000014305128
        outSlope: -0.000014305128
        tangentMode: 0
      - time: 0.71666664
        value: 0.9999993
        inSlope: -0.000019669551
        outSlope: -0.000019669551
        tangentMode: 0
      - time: 0.7333333
        value: 0.99999887
        inSlope: -0.000026822116
        outSlope: -0.000026822116
        tangentMode: 0
      - time: 0.74999994
        value: 0.9999984
        inSlope: -0.000032186537
        outSlope: -0.000032186537
        tangentMode: 0
      - time: 0.7666666
        value: 0.9999978
        inSlope: -0.000037550963
        outSlope: -0.000037550963
        tangentMode: 0
      - time: 0.78333324
        value: 0.99999714
        inSlope: -0.000044703527
        outSlope: -0.000044703527
        tangentMode: 0
      - time: 0.7999999
        value: 0.9999963
        inSlope: -0.000051856092
        outSlope: -0.000051856092
        tangentMode: 0
      - time: 0.81666654
        value: 0.9999954
        inSlope: -0.00005543237
        outSlope: -0.00005543237
        tangentMode: 0
      - time: 0.8333332
        value: 0.99999446
        inSlope: -0.000059008657
        outSlope: -0.000059008657
        tangentMode: 0
      - time: 0.84999985
        value: 0.99999344
        inSlope: -0.000060796796
        outSlope: -0.000060796796
        tangentMode: 0
      - time: 0.8666665
        value: 0.99999243
        inSlope: -0.000060796796
        outSlope: -0.000060796796
        tangentMode: 0
      - time: 0.88333315
        value: 0.9999914
        inSlope: -0.000059008347
        outSlope: -0.000059008347
        tangentMode: 0
      - time: 0.9
        value: 0.99999046
        inSlope: -0.0000572199
        outSlope: -0.0000572199
        tangentMode: 0
      m_PreInfinity: 2
      m_PostInfinity: 2
      m_RotationOrder: 4
    attribute: m_LocalRotation.w
    path: Door_narrow/DoorNarrow_joint
    classID: 4
    script: {fileID: 0}
  - curve:
      serializedVersion: 2
      m_Curve:
      - time: 0
        value: 0
        inSlope: 0
        outSlope: 0
        tangentMode: 0
      - time: 0.016666668
        value: 0
        inSlope: 0
        outSlope: 0
        tangentMode: 0
      - time: 0.033333335
        value: 0
        inSlope: 0
        outSlope: 0
        tangentMode: 0
      - time: 0.050000004
        value: 0
        inSlope: 0
        outSlope: 0
        tangentMode: 0
      - time: 0.06666667
        value: 0
        inSlope: 0
        outSlope: 0
        tangentMode: 0
      - time: 0.083333336
        value: 0
        inSlope: 0
        outSlope: 0
        tangentMode: 0
      - time: 0.1
        value: 0
        inSlope: 0
        outSlope: 0
        tangentMode: 0
      - time: 0.11666667
        value: 0
        inSlope: 0
        outSlope: 0
        tangentMode: 0
      - time: 0.13333334
        value: 0
        inSlope: 0
        outSlope: 0
        tangentMode: 0
      - time: 0.15
        value: 0
        inSlope: 0
        outSlope: 0
        tangentMode: 0
      - time: 0.16666667
        value: 0
        inSlope: 0
        outSlope: 0
        tangentMode: 0
      - time: 0.18333334
        value: 0
        inSlope: 0
        outSlope: 0
        tangentMode: 0
      - time: 0.2
        value: 0
        inSlope: 0
        outSlope: 0
        tangentMode: 0
      - time: 0.21666667
        value: 0
        inSlope: 0
        outSlope: 0
        tangentMode: 0
      - time: 0.23333333
        value: 0
        inSlope: 0
        outSlope: 0
        tangentMode: 0
      - time: 0.25
        value: 0
        inSlope: 0
        outSlope: 0
        tangentMode: 0
      - time: 0.26666668
        value: 0
        inSlope: 0
        outSlope: 0
        tangentMode: 0
      - time: 0.28333336
        value: 0
        inSlope: 0
        outSlope: 0
        tangentMode: 0
      - time: 0.30000004
        value: 0
        inSlope: 0
        outSlope: 0
        tangentMode: 0
      - time: 0.31666672
        value: 0
        inSlope: 0
        outSlope: 0
        tangentMode: 0
      - time: 0.3333334
        value: 0
        inSlope: 0
        outSlope: 0
        tangentMode: 0
      - time: 0.35000008
        value: 0
        inSlope: 0
        outSlope: 0
        tangentMode: 0
      - time: 0.36666676
        value: 0
        inSlope: 0
        outSlope: 0
        tangentMode: 0
      - time: 0.38333344
        value: 0
        inSlope: 0
        outSlope: 0
        tangentMode: 0
      - time: 0.40000013
        value: 0
        inSlope: 0
        outSlope: 0
        tangentMode: 0
      - time: 0.4166668
        value: 0
        inSlope: 0
        outSlope: 0
        tangentMode: 0
      - time: 0.4333335
        value: 0
        inSlope: 0
        outSlope: 0
        tangentMode: 0
      - time: 0.45000017
        value: 0
        inSlope: 0
        outSlope: 0
        tangentMode: 0
      - time: 0.46666685
        value: 0
        inSlope: 0
        outSlope: 0
        tangentMode: 0
      - time: 0.48333353
        value: 0
        inSlope: 0
        outSlope: 0
        tangentMode: 0
      - time: 0.5000002
        value: 0
        inSlope: 0
        outSlope: 0
        tangentMode: 0
      - time: 0.5166668
        value: 0
        inSlope: 0
        outSlope: 0
        tangentMode: 0
      - time: 0.5333335
        value: 0
        inSlope: 0
        outSlope: 0
        tangentMode: 0
      - time: 0.55000013
        value: 0
        inSlope: 0
        outSlope: 0
        tangentMode: 0
      - time: 0.5666668
        value: 0
        inSlope: 0
        outSlope: 0
        tangentMode: 0
      - time: 0.58333343
        value: 0
        inSlope: 0
        outSlope: 0
        tangentMode: 0
      - time: 0.6000001
        value: 0
        inSlope: 0
        outSlope: 0
        tangentMode: 0
      - time: 0.61666673
        value: 0
        inSlope: 0
        outSlope: 0
        tangentMode: 0
      - time: 0.6333334
        value: 0
        inSlope: 0
        outSlope: 0
        tangentMode: 0
      - time: 0.65000004
        value: 0
        inSlope: 0
        outSlope: 0
        tangentMode: 0
      - time: 0.6666667
        value: 0
        inSlope: 0
        outSlope: 0
        tangentMode: 0
      - time: 0.68333334
        value: 0
        inSlope: 0
        outSlope: 0
        tangentMode: 0
      - time: 0.7
        value: 0
        inSlope: 0
        outSlope: 0
        tangentMode: 0
      - time: 0.71666664
        value: 0
        inSlope: 0
        outSlope: 0
        tangentMode: 0
      - time: 0.7333333
        value: 0
        inSlope: 0
        outSlope: 0
        tangentMode: 0
      - time: 0.74999994
        value: 0
        inSlope: 0
        outSlope: 0
        tangentMode: 0
      - time: 0.7666666
        value: 0
        inSlope: 0
        outSlope: 0
        tangentMode: 0
      - time: 0.78333324
        value: 0
        inSlope: 0
        outSlope: 0
        tangentMode: 0
      - time: 0.7999999
        value: 0
        inSlope: 0
        outSlope: 0
        tangentMode: 0
      - time: 0.81666654
        value: 0
        inSlope: 0
        outSlope: 0
        tangentMode: 0
      - time: 0.8333332
        value: 0
        inSlope: 0
        outSlope: 0
        tangentMode: 0
      - time: 0.84999985
        value: 0
        inSlope: 0
        outSlope: 0
        tangentMode: 0
      - time: 0.8666665
        value: 0
        inSlope: 0
        outSlope: 0
        tangentMode: 0
      - time: 0.8833333
        value: 0
        inSlope: 0
        outSlope: 0
        tangentMode: 0
      m_PreInfinity: 2
      m_PostInfinity: 2
      m_RotationOrder: 4
    attribute: m_LocalRotation.x
    path: Door_narrow/DoorNarrow_joint/DoorNarrow_handle
    classID: 4
    script: {fileID: 0}
  - curve:
      serializedVersion: 2
      m_Curve:
      - time: 0
        value: 0
        inSlope: 0
        outSlope: 0
        tangentMode: 0
      - time: 0.016666668
        value: 0
        inSlope: 0
        outSlope: 0
        tangentMode: 0
      - time: 0.033333335
        value: 0
        inSlope: 0
        outSlope: 0
        tangentMode: 0
      - time: 0.050000004
        value: 0
        inSlope: 0
        outSlope: 0
        tangentMode: 0
      - time: 0.06666667
        value: 0
        inSlope: 0
        outSlope: 0
        tangentMode: 0
      - time: 0.083333336
        value: 0
        inSlope: 0
        outSlope: 0
        tangentMode: 0
      - time: 0.1
        value: 0
        inSlope: 0
        outSlope: 0
        tangentMode: 0
      - time: 0.11666667
        value: 0
        inSlope: 0
        outSlope: 0
        tangentMode: 0
      - time: 0.13333334
        value: 0
        inSlope: 0
        outSlope: 0
        tangentMode: 0
      - time: 0.15
        value: 0
        inSlope: 0
        outSlope: 0
        tangentMode: 0
      - time: 0.16666667
        value: 0
        inSlope: 0
        outSlope: 0
        tangentMode: 0
      - time: 0.18333334
        value: 0
        inSlope: 0
        outSlope: 0
        tangentMode: 0
      - time: 0.2
        value: 0
        inSlope: 0
        outSlope: 0
        tangentMode: 0
      - time: 0.21666667
        value: 0
        inSlope: 0
        outSlope: 0
        tangentMode: 0
      - time: 0.23333333
        value: 0
        inSlope: 0
        outSlope: 0
        tangentMode: 0
      - time: 0.25
        value: 0
        inSlope: 0
        outSlope: 0
        tangentMode: 0
      - time: 0.26666668
        value: 0
        inSlope: 0
        outSlope: 0
        tangentMode: 0
      - time: 0.28333336
        value: 0
        inSlope: 0
        outSlope: 0
        tangentMode: 0
      - time: 0.30000004
        value: 0
        inSlope: 0
        outSlope: 0
        tangentMode: 0
      - time: 0.31666672
        value: 0
        inSlope: 0
        outSlope: 0
        tangentMode: 0
      - time: 0.3333334
        value: 0
        inSlope: 0
        outSlope: 0
        tangentMode: 0
      - time: 0.35000008
        value: 0
        inSlope: 0
        outSlope: 0
        tangentMode: 0
      - time: 0.36666676
        value: 0
        inSlope: 0
        outSlope: 0
        tangentMode: 0
      - time: 0.38333344
        value: 0
        inSlope: 0
        outSlope: 0
        tangentMode: 0
      - time: 0.40000013
        value: 0
        inSlope: 0
        outSlope: 0
        tangentMode: 0
      - time: 0.4166668
        value: 0
        inSlope: 0
        outSlope: 0
        tangentMode: 0
      - time: 0.4333335
        value: 0
        inSlope: 0
        outSlope: 0
        tangentMode: 0
      - time: 0.45000017
        value: 0
        inSlope: 0
        outSlope: 0
        tangentMode: 0
      - time: 0.46666685
        value: 0
        inSlope: 0
        outSlope: 0
        tangentMode: 0
      - time: 0.48333353
        value: 0
        inSlope: 0
        outSlope: 0
        tangentMode: 0
      - time: 0.5000002
        value: 0
        inSlope: 0
        outSlope: 0
        tangentMode: 0
      - time: 0.5166668
        value: 0
        inSlope: 0
        outSlope: 0
        tangentMode: 0
      - time: 0.5333335
        value: 0
        inSlope: 0
        outSlope: 0
        tangentMode: 0
      - time: 0.55000013
        value: 0
        inSlope: 0
        outSlope: 0
        tangentMode: 0
      - time: 0.5666668
        value: 0
        inSlope: 0
        outSlope: 0
        tangentMode: 0
      - time: 0.58333343
        value: 0
        inSlope: 0
        outSlope: 0
        tangentMode: 0
      - time: 0.6000001
        value: 0
        inSlope: 0
        outSlope: 0
        tangentMode: 0
      - time: 0.61666673
        value: 0
        inSlope: 0
        outSlope: 0
        tangentMode: 0
      - time: 0.6333334
        value: 0
        inSlope: 0
        outSlope: 0
        tangentMode: 0
      - time: 0.65000004
        value: 0
        inSlope: 0
        outSlope: 0
        tangentMode: 0
      - time: 0.6666667
        value: 0
        inSlope: 0
        outSlope: 0
        tangentMode: 0
      - time: 0.68333334
        value: 0
        inSlope: 0
        outSlope: 0
        tangentMode: 0
      - time: 0.7
        value: 0
        inSlope: 0
        outSlope: 0
        tangentMode: 0
      - time: 0.71666664
        value: 0
        inSlope: 0
        outSlope: 0
        tangentMode: 0
      - time: 0.7333333
        value: 0
        inSlope: 0
        outSlope: 0
        tangentMode: 0
      - time: 0.74999994
        value: 0
        inSlope: 0
        outSlope: 0
        tangentMode: 0
      - time: 0.7666666
        value: 0
        inSlope: 0
        outSlope: 0
        tangentMode: 0
      - time: 0.78333324
        value: 0
        inSlope: 0
        outSlope: 0
        tangentMode: 0
      - time: 0.7999999
        value: 0
        inSlope: 0
        outSlope: 0
        tangentMode: 0
      - time: 0.81666654
        value: 0
        inSlope: 0
        outSlope: 0
        tangentMode: 0
      - time: 0.8333332
        value: 0
        inSlope: 0
        outSlope: 0
        tangentMode: 0
      - time: 0.84999985
        value: 0
        inSlope: 0
        outSlope: 0
        tangentMode: 0
      - time: 0.8666665
        value: 0
        inSlope: 0
        outSlope: 0
        tangentMode: 0
      - time: 0.8833333
        value: 0
        inSlope: 0
        outSlope: 0
        tangentMode: 0
      m_PreInfinity: 2
      m_PostInfinity: 2
      m_RotationOrder: 4
    attribute: m_LocalRotation.y
    path: Door_narrow/DoorNarrow_joint/DoorNarrow_handle
    classID: 4
    script: {fileID: 0}
  - curve:
      serializedVersion: 2
      m_Curve:
      - time: 0
        value: 0.0068009957
        inSlope: 3.6124432
        outSlope: 3.6124432
        tangentMode: 0
      - time: 0.016666668
        value: 0.06700838
        inSlope: 3.7316825
        outSlope: 3.7316825
        tangentMode: 0
      - time: 0.033333335
        value: 0.13119042
        inSlope: 3.8971152
        outSlope: 3.8971152
        tangentMode: 0
      - time: 0.050000004
        value: 0.19691224
        inSlope: 3.9170852
        outSlope: 3.9170852
        tangentMode: 0
      - time: 0.06666667
        value: 0.26175994
        inSlope: 3.7956529
        outSlope: 3.7956529
        tangentMode: 0
      - time: 0.083333336
        value: 0.323434
        inSlope: 3.5421414
        outSlope: 3.5421414
        tangentMode: 0
      - time: 0.1
        value: 0.3798313
        inSlope: 3.1698482
        outSlope: 3.1698482
        tangentMode: 0
      - time: 0.11666667
        value: 0.4290956
        inSlope: 2.6936965
        outSlope: 2.6936965
        tangentMode: 0
      - time: 0.13333334
        value: 0.4696212
        inSlope: 2.1271229
        outSlope: 2.1271229
        tangentMode: 0
      - time: 0.15
        value: 0.4999997
        inSlope: 1.557787
        outSlope: 1.557787
        tangentMode: 0
      - time: 0.16666667
        value: 0.52154744
        inSlope: 1.0757966
        outSlope: 1.0757966
        tangentMode: 0
      - time: 0.18333334
        value: 0.5358596
        inSlope: 0.6136305
        outSlope: 0.6136305
        tangentMode: 0
      - time: 0.2
        value: 0.5420018
        inSlope: 0.09223939
        outSlope: 0.09223939
        tangentMode: 0
      - time: 0.21666667
        value: 0.53893423
        inSlope: -0.4971439
        outSlope: -0.4971439
        tangentMode: 0
      - time: 0.23333333
        value: 0.5254303
        inSlope: -1.168036
        outSlope: -1.168036
        tangentMode: 0
      - time: 0.25
        value: 0.4999997
        inSlope: -2.197546
        outSlope: -2.197546
        tangentMode: 0
      - time: 0.26666668
        value: 0.45217875
        inSlope: -3.6499782
        outSlope: -3.6499782
        tangentMode: 0
      - time: 0.28333336
        value: 0.37833366
        inSlope: -4.924448
        outSlope: -4.924448
        tangentMode: 0
      - time: 0.30000004
        value: 0.28803036
        inSlope: -5.568427
        outSlope: -5.568427
        tangentMode: 0
      - time: 0.31666672
        value: 0.19271927
        inSlope: -5.482088
        outSlope: -5.482088
        tangentMode: 0
      - time: 0.3333334
        value: 0.105293944
        inSlope: -4.6105466
        outSlope: -4.6105466
        tangentMode: 0
      - time: 0.35000008
        value: 0.039034255
        inSlope: -2.9547877
        outSlope: -2.9547877
        tangentMode: 0
      - time: 0.36666676
        value: 0.0068009365
        inSlope: -0.8717592
        outSlope: -0.8717592
        tangentMode: 0
      - time: 0.38333344
        value: 0.009975594
        inSlope: 0.9388284
        outSlope: 0.9388284
        tangentMode: 0
      - time: 0.40000013
        value: 0.038095243
        inSlope: 2.2737095
        outSlope: 2.2737095
        tangentMode: 0
      - time: 0.4166668
        value: 0.08576597
        inSlope: 3.2797942
        outSlope: 3.2797942
        tangentMode: 0
      - time: 0.4333335
        value: 0.1474218
        inSlope: 3.946317
        outSlope: 3.946317
        tangentMode: 0
      - time: 0.45000017
        value: 0.21730998
        inSlope: 4.2664013
        outSlope: 4.2664013
        tangentMode: 0
      - time: 0.46666685
        value: 0.2896353
        inSlope: 4.2454667
        outSlope: 4.2454667
        tangentMode: 0
      - time: 0.48333353
        value: 0.35882565
        inSlope: 3.9051657
        outSlope: 3.9051657
        tangentMode: 0
      - time: 0.5000002
        value: 0.4198075
        inSlope: 3.2798762
        outSlope: 3.2798762
        tangentMode: 0
      - time: 0.5166668
        value: 0.46815476
        inSlope: 2.405773
        outSlope: 2.405773
        tangentMode: 0
      - time: 0.5333335
        value: 0.49999985
        inSlope: 1.4805834
        outSlope: 1.4805834
        tangentMode: 0
      - time: 0.55000013
        value: 0.5175075
        inSlope: 0.7885013
        outSlope: 0.7885013
        tangentMode: 0
      - time: 0.5666668
        value: 0.5262832
        inSlope: 0.30597058
        outSlope: 0.30597058
        tangentMode: 0
      - time: 0.58333343
        value: 0.5277065
        inSlope: -0.097770184
        outSlope: -0.097770184
        tangentMode: 0
      - time: 0.6000001
        value: 0.5230242
        inSlope: -0.42898756
        outSlope: -0.42898756
        tangentMode: 0
      - time: 0.61666673
        value: 0.51340693
        inSlope: -0.6907374
        outSlope: -0.6907374
        tangentMode: 0
      - time: 0.6333334
        value: 0.49999964
        inSlope: -0.91026926
        outSlope: -0.91026926
        tangentMode: 0
      - time: 0.65000004
        value: 0.48306465
        inSlope: -1.1314435
        outSlope: -1.1314435
        tangentMode: 0
      - time: 0.6666667
        value: 0.4622849
        inSlope: -1.3535244
        outSlope: -1.3535244
        tangentMode: 0
      - time: 0.68333334
        value: 0.4379472
        inSlope: -1.5579313
        outSlope: -1.5579313
        tangentMode: 0
      - time: 0.7
        value: 0.4103539
        inSlope: -1.7434769
        outSlope: -1.7434769
        tangentMode: 0
      - time: 0.71666664
        value: 0.37983137
        inSlope: -1.9085402
        outSlope: -1.9085402
        tangentMode: 0
      - time: 0.7333333
        value: 0.34673595
        inSlope: -2.0512176
        outSlope: -2.0512176
        tangentMode: 0
      - time: 0.74999994
        value: 0.3114575
        inSlope: -2.1694987
        outSlope: -2.1694987
        tangentMode: 0
      - time: 0.7666666
        value: 0.2744194
        inSlope: -2.2614253
        outSlope: -2.2614253
        tangentMode: 0
      - time: 0.78333324
        value: 0.23607674
        inSlope: -2.3252106
        outSlope: -2.3252106
        tangentMode: 0
      - time: 0.7999999
        value: 0.19691245
        inSlope: -2.3593655
        outSlope: -2.3593655
        tangentMode: 0
      - time: 0.81666654
        value: 0.1574313
        inSlope: -2.3627877
        outSlope: -2.3627877
        tangentMode: 0
      - time: 0.8333332
        value: 0.11815294
        inSlope: -2.3348026
        outSlope: -2.3348026
        tangentMode: 0
      - time: 0.84999985
        value: 0.079604626
        inSlope: -2.2751758
        outSlope: -2.2751758
        tangentMode: 0
      - time: 0.8666665
        value: 0.042313818
        inSlope: -2.1840997
        outSlope: -2.1840997
        tangentMode: 0
      - time: 0.8833333
        value: 0.0068009957
        inSlope: -2.1307485
        outSlope: -2.1307485
        tangentMode: 0
      m_PreInfinity: 2
      m_PostInfinity: 2
      m_RotationOrder: 4
    attribute: m_LocalRotation.z
    path: Door_narrow/DoorNarrow_joint/DoorNarrow_handle
    classID: 4
    script: {fileID: 0}
  - curve:
      serializedVersion: 2
      m_Curve:
      - time: 0
        value: 0.9999769
        inSlope: -0.13346672
        outSlope: -0.13346672
        tangentMode: 0
      - time: 0.016666668
        value: 0.9977524
        inSlope: -0.25858998
        outSlope: -0.25858998
        tangentMode: 0
      - time: 0.033333335
        value: 0.9913572
        inSlope: -0.519939
        outSlope: -0.519939
        tangentMode: 0
      - time: 0.050000004
        value: 0.9804211
        inSlope: -0.7867259
        outSlope: -0.7867259
        tangentMode: 0
      - time: 0.06666667
        value: 0.965133
        inSlope: -1.0251118
        outSlope: -1.0251118
        tangentMode: 0
      - time: 0.083333336
        value: 0.94625074
        inSlope: -1.2023182
        outSlope: -1.2023182
        tangentMode: 0
      - time: 0.1
        value: 0.92505574
        inSlope: -1.2897493
        outSlope: -1.2897493
        tangentMode: 0
      - time: 0.11666667
        value: 0.9032591
        inSlope: -1.2656324
        outSlope: -1.2656324
        tangentMode: 0
      - time: 0.13333334
        value: 0.882868
        inSlope: -1.1170058
        outSlope: -1.1170058
        tangentMode: 0
      - time: 0.15
        value: 0.86602557
        inSlope: -0.88937056
        outSlope: -0.88937056
        tangentMode: 0
      - time: 0.16666667
        value: 0.8532223
        inSlope: -0.65155333
        outSlope: -0.65155333
        tangentMode: 0
      - time: 0.18333334
        value: 0.8443071
        inSlope: -0.38534942
        outSlope: -0.38534942
        tangentMode: 0
      - time: 0.2
        value: 0.84037733
        inSlope: -0.058777932
        outSlope: -0.058777932
        tangentMode: 0
      - time: 0.21666667
        value: 0.84234786
        inSlope: 0.31377915
        outSlope: 0.31377915
        tangentMode: 0
      - time: 0.23333333
        value: 0.85083663
        inSlope: 0.71033126
        outSlope: 0.71033126
        tangentMode: 0
      - time: 0.25
        value: 0.86602557
        inSlope: 1.2327212
        outSlope: 1.2327212
        tangentMode: 0
      - time: 0.26666668
        value: 0.89192736
        inSlope: 1.7893109
        outSlope: 1.7893109
        tangentMode: 0
      - time: 0.28333336
        value: 0.9256693
        inSlope: 1.9708159
        outSlope: 1.9708159
        tangentMode: 0
      - time: 0.30000004
        value: 0.9576213
        inSlope: 1.667537
        outSlope: 1.667537
        tangentMode: 0
      - time: 0.31666672
        value: 0.9812539
        inSlope: 1.1045953
        outSlope: 1.1045953
        tangentMode: 0
      - time: 0.3333334
        value: 0.99444115
        inSlope: 0.5395187
        outSlope: 0.5395187
        tangentMode: 0
      - time: 0.35000008
        value: 0.9992379
        inSlope: 0.16607152
        outSlope: 0.16607152
        tangentMode: 0
      - time: 0.36666676
        value: 0.9999769
        inSlope: 0.021370035
        outSlope: 0.021370035
        tangentMode: 0
      - time: 0.38333344
        value: 0.99995023
        inSlope: -0.021082146
        outSlope: -0.021082146
        tangentMode: 0
      - time: 0.40000013
        value: 0.99927413
        inSlope: -0.1090478
        outSlope: -0.1090478
        tangentMode: 0
      - time: 0.4166668
        value: 0.9963153
        inSlope: -0.306013
        outSlope: -0.306013
        tangentMode: 0
      - time: 0.4333335
        value: 0.9890737
        inSlope: -0.60637903
        outSlope: -0.60637903
        tangentMode: 0
      - time: 0.45000017
        value: 0.97610265
        inSlope: -0.95809674
        outSlope: -0.95809674
        tangentMode: 0
      - time: 0.46666685
        value: 0.9571371
        inSlope: -1.2809397
        outSlope: -1.2809397
        tangentMode: 0
      - time: 0.48333353
        value: 0.9334046
        inSlope: -1.4857186
        outSlope: -1.4857186
        tangentMode: 0
      - time: 0.5000002
        value: 0.90761316
        inSlope: -1.4927455
        outSlope: -1.4927455
        tangentMode: 0
      - time: 0.5166668
        value: 0.8836465
        inSlope: -1.2476307
        outSlope: -1.2476307
        tangentMode: 0
      - time: 0.5333335
        value: 0.8660255
        inSlope: -0.8390351
        outSlope: -0.8390351
        tangentMode: 0
      - time: 0.55000013
        value: 0.8556787
        inSlope: -0.4714845
        outSlope: -0.4714845
        tangentMode: 0
      - time: 0.5666668
        value: 0.8503094
        inSlope: -0.18755811
        outSlope: -0.18755811
        tangentMode: 0
      - time: 0.58333343
        value: 0.84942675
        inSlope: 0.0602532
        outSlope: 0.0602532
        tangentMode: 0
      - time: 0.6000001
        value: 0.8523178
        inSlope: 0.26155674
        outSlope: 0.26155674
        tangentMode: 0
      - time: 0.61666673
        value: 0.8581453
        inSlope: 0.4112349
        outSlope: 0.4112349
        tangentMode: 0
      - time: 0.6333334
        value: 0.8660256
        inSlope: 0.52318144
        outSlope: 0.52318144
        tangentMode: 0
      - time: 0.65000004
        value: 0.87558466
        inSlope: 0.62117517
        outSlope: 0.62117517
        tangentMode: 0
      - time: 0.6666667
        value: 0.88673145
        inSlope: 0.702482
        outSlope: 0.702482
        tangentMode: 0
      - time: 0.68333334
        value: 0.8990007
        inSlope: 0.7558472
        outSlope: 0.7558472
        tangentMode: 0
      - time: 0.7
        value: 0.9119263
        inSlope: 0.78165185
        outSlope: 0.78165185
        tangentMode: 0
      - time: 0.71666664
        value: 0.92505574
        inSlope: 0.78109396
        outSlope: 0.78109396
        tangentMode: 0
      - time: 0.7333333
        value: 0.9379628
        inSlope: 0.75613153
        outSlope: 0.75613153
        tangentMode: 0
      - time: 0.74999994
        value: 0.9502601
        inSlope: 0.70941997
        outSlope: 0.70941997
        tangentMode: 0
      - time: 0.7666666
        value: 0.9616101
        inSlope: 0.64422965
        outSlope: 0.64422965
        tangentMode: 0
      - time: 0.78333324
        value: 0.9717344
        inSlope: 0.56433016
        outSlope: 0.56433016
        tangentMode: 0
      - time: 0.7999999
        value: 0.98042107
        inSlope: 0.4738663
        outSlope: 0.4738663
        tangentMode: 0
      - time: 0.81666654
        value: 0.98752993
        inSlope: 0.3772298
        outSlope: 0.3772298
        tangentMode: 0
      - time: 0.8333332
        value: 0.9929954
        inSlope: 0.27889815
        outSlope: 0.27889815
        tangentMode: 0
      - time: 0.84999985
        value: 0.9968265
        inSlope: 0.18327016
        outSlope: 0.18327016
        tangentMode: 0
      - time: 0.8666665
        value: 0.9991044
        inSlope: 0.09451013
        outSlope: 0.09451013
        tangentMode: 0
      - time: 0.8833333
        value: 0.9999769
        inSlope: 0.052349057
        outSlope: 0.052349057
        tangentMode: 0
      m_PreInfinity: 2
      m_PostInfinity: 2
      m_RotationOrder: 4
    attribute: m_LocalRotation.w
    path: Door_narrow/DoorNarrow_joint/DoorNarrow_handle
    classID: 4
    script: {fileID: 0}
  m_EulerEditorCurves:
  - curve:
      serializedVersion: 2
      m_Curve:
      - time: 0
        value: 0
        inSlope: 0
        outSlope: 0
        tangentMode: 10
      - time: 0.15
        value: 0
        inSlope: 0
        outSlope: 0
        tangentMode: 10
      - time: 0.2
        value: 0
        inSlope: 0
        outSlope: 0
        tangentMode: 10
      - time: 0.25
        value: 0
        inSlope: 0
        outSlope: 0
        tangentMode: 10
      - time: 0.31666666
        value: 0
        inSlope: 0
        outSlope: 0
        tangentMode: 10
      - time: 0.41666666
        value: 0
        inSlope: 0
        outSlope: 0
        tangentMode: 10
      - time: 0.56666666
        value: 0
        inSlope: 0
        outSlope: 0
        tangentMode: 10
      - time: 0.9
        value: 0
        inSlope: 0
        outSlope: 0
        tangentMode: 10
      m_PreInfinity: 2
      m_PostInfinity: 2
      m_RotationOrder: 4
    attribute: localEulerAnglesBaked.x
    path: Door_narrow/DoorNarrow_joint
    classID: 4
    script: {fileID: 0}
  - curve:
      serializedVersion: 2
      m_Curve:
      - time: 0
        value: -0.03
        inSlope: -3.1333332
        outSlope: -3.1333332
        tangentMode: 10
      - time: 0.15
        value: -0.5
        inSlope: 3.1333337
        outSlope: 3.1333337
        tangentMode: 10
      - time: 0.2
        value: -0.03
        inSlope: 0
        outSlope: 0
        tangentMode: 10
      - time: 0.25
        value: -0.5
        inSlope: -1.1750002
        outSlope: -1.1750002
        tangentMode: 10
      - time: 0.31666666
        value: -0.03
        inSlope: 1.175
        outSlope: 1.175
        tangentMode: 10
      - time: 0.41666666
        value: -0.5
        inSlope: -0.78333354
        outSlope: -0.78333354
        tangentMode: 10
      - time: 0.56666666
        value: -0.03
        inSlope: 0.86166656
        outSlope: 0.86166656
        tangentMode: 10
      - time: 0.9
        value: -0.5
        inSlope: -1.4100001
        outSlope: -1.4100001
        tangentMode: 10
      m_PreInfinity: 2
      m_PostInfinity: 2
      m_RotationOrder: 4
    attribute: localEulerAnglesBaked.y
    path: Door_narrow/DoorNarrow_joint
    classID: 4
    script: {fileID: 0}
  - curve:
      serializedVersion: 2
      m_Curve:
      - time: 0
        value: 0
        inSlope: 0
        outSlope: 0
        tangentMode: 10
      - time: 0.15
        value: 0
        inSlope: 0
        outSlope: 0
        tangentMode: 10
      - time: 0.2
        value: 0
        inSlope: 0
        outSlope: 0
        tangentMode: 10
      - time: 0.25
        value: 0
        inSlope: 0
        outSlope: 0
        tangentMode: 10
      - time: 0.31666666
        value: 0
        inSlope: 0
        outSlope: 0
        tangentMode: 10
      - time: 0.41666666
        value: 0
        inSlope: 0
        outSlope: 0
        tangentMode: 10
      - time: 0.56666666
        value: 0
        inSlope: 0
        outSlope: 0
        tangentMode: 10
      - time: 0.9
        value: 0
        inSlope: 0
        outSlope: 0
        tangentMode: 10
      m_PreInfinity: 2
      m_PostInfinity: 2
      m_RotationOrder: 4
    attribute: localEulerAnglesBaked.z
    path: Door_narrow/DoorNarrow_joint
    classID: 4
    script: {fileID: 0}
  - curve:
      serializedVersion: 2
      m_Curve:
      - time: 0
        value: 0
        inSlope: 0
        outSlope: 0
        tangentMode: 10
      - time: 0.15
        value: 0
        inSlope: 0
        outSlope: 0
        tangentMode: 10
      - time: 0.25
        value: 0
        inSlope: 0
        outSlope: 0
        tangentMode: 10
      - time: 0.36666667
        value: 0
        inSlope: 0
        outSlope: 0
        tangentMode: 10
      - time: 0.53333336
        value: 0
        inSlope: 0
        outSlope: 0
        tangentMode: 10
      - time: 0.6333333
        value: 0
        inSlope: 0
        outSlope: 0
        tangentMode: 10
      - time: 0.8833333
        value: 0
        inSlope: 0
        outSlope: 0
        tangentMode: 10
      m_PreInfinity: 2
      m_PostInfinity: 2
      m_RotationOrder: 4
    attribute: localEulerAnglesBaked.x
    path: Door_narrow/DoorNarrow_joint/DoorNarrow_handle
    classID: 4
    script: {fileID: 0}
  - curve:
      serializedVersion: 2
      m_Curve:
      - time: 0
        value: 0
        inSlope: 0
        outSlope: 0
        tangentMode: 10
      - time: 0.15
        value: 0
        inSlope: 0
        outSlope: 0
        tangentMode: 10
      - time: 0.25
        value: 0
        inSlope: 0
        outSlope: 0
        tangentMode: 10
      - time: 0.36666667
        value: 0
        inSlope: 0
        outSlope: 0
        tangentMode: 10
      - time: 0.53333336
        value: 0
        inSlope: 0
        outSlope: 0
        tangentMode: 10
      - time: 0.6333333
        value: 0
        inSlope: 0
        outSlope: 0
        tangentMode: 10
      - time: 0.8833333
        value: 0
        inSlope: 0
        outSlope: 0
        tangentMode: 10
      m_PreInfinity: 2
      m_PostInfinity: 2
      m_RotationOrder: 4
    attribute: localEulerAnglesBaked.y
    path: Door_narrow/DoorNarrow_joint/DoorNarrow_handle
    classID: 4
    script: {fileID: 0}
  - curve:
      serializedVersion: 2
      m_Curve:
      - time: 0
        value: 0.77934265
        inSlope: 394.80405
        outSlope: 394.80405
        tangentMode: 10
      - time: 0.15
        value: 59.999954
        inSlope: 197.40202
        outSlope: 197.40202
        tangentMode: 10
      - time: 0.25
        value: 59.999954
        inSlope: -253.8026
        outSlope: -253.8026
        tangentMode: 10
      - time: 0.36666667
        value: 0.77934265
        inSlope: -76.14078
        outSlope: -76.14078
        tangentMode: 10
      - time: 0.53333336
        value: 59.999954
        inSlope: 177.66182
        outSlope: 177.66182
        tangentMode: 10
      - time: 0.6333333
        value: 59.999954
        inSlope: -118.44122
        outSlope: -118.44122
        tangentMode: 10
      - time: 0.8833333
        value: 0.77934265
        inSlope: -236.88245
        outSlope: -236.88245
        tangentMode: 10
      m_PreInfinity: 2
      m_PostInfinity: 2
      m_RotationOrder: 4
    attribute: localEulerAnglesBaked.z
    path: Door_narrow/DoorNarrow_joint/DoorNarrow_handle
    classID: 4
    script: {fileID: 0}
  m_HasGenericRootTransform: 0
  m_HasMotionFloatCurves: 0
  m_GenerateMotionCurves: 0
  m_Events: []
