%YAML 1.1
%TAG !u! tag:unity3d.com,2011:
--- !u!1045 &1
EditorBuildSettings:
  m_ObjectHideFlags: 0
  serializedVersion: 2
  m_Scenes:
  - enabled: 1
    path: Assets/Scenes/MainMenu.unity
  - enabled: 1
    path: Assets/Scenes/accident1.unity
  - enabled: 1
    path: Assets/Scenes/incendis_urbans.unity
  - enabled: 1
    path: Assets/Scenes/resum.unity
  - enabled: 0
    path: Assets/Scenes/AccidentMenu.unity
  - enabled: 1
    path: Assets/Scenes/accident2.unity
  - enabled: 1
    path: Assets/Scenes/accident3.unity
  - enabled: 1
    path: Assets/Scenes/accident4.unity
